{
    "prim": "pair",
    "type": "namedtuple",
    "children": [
        {
            "prim": "address",
            "type": "address",
            "name": "kusd",
            "value": "KT1RXpLtz22YgX24QQhxKVyKvtKZFaAVtTB9"
        },
        {
            "prim": "big_map",
            "type": "big_map",
            "name": "long_bids",
            "value": 55478
        },
        {
            "prim": "big_map",
            "type": "big_map",
            "name": "short_bids",
            "value": 55479
        },
        {
            "prim": "address",
            "type": "address",
            "name": "option_contract",
            "value": "KT1MJLi8cQSJ8G7V7K8pgbqHSLVcquqfgzVk"
        },
        {
            "prim": "nat",
            "type": "nat",
            "name": "long_token_id",
            "value": "0"
        },
        {
            "prim": "nat",
            "type": "nat",
            "name": "short_token_id",
            "value": "1"
        },
        {
            "prim": "timestamp",
            "type": "timestamp",
            "name": "bidding_end",
            "value": "2021-01-30 20:24:37 +0000 UTC"
        },
        {
            "prim": "timestamp",
            "type": "timestamp",
            "name": "trading_end",
            "value": "2021-01-30 20:54:37 +0000 UTC"
        },
        {
            "prim": "nat",
            "type": "nat",
            "name": "total_long_bids",
            "value": "12300000000000000000"
        },
        {
            "prim": "nat",
            "type": "nat",
            "name": "total_short_bids",
            "value": "14500000000000000000"
        },
        {
            "prim": "nat",
            "type": "nat",
            "name": "long_price",
            "value": "0"
        },
        {
            "prim": "nat",
            "type": "nat",
            "name": "short_price",
            "value": "0"
        },
        {
            "name": "winning_side"
        },
        {
            "prim": "address",
            "type": "address",
            "name": "harbinger",
            "value": "KT1LWDzd6mFhjjnb65a1PjHDNZtFKBieTQKH"
        },
        {
            "prim": "string",
            "type": "string",
            "name": "asset",
            "value": "BTC-USD"
        },
        {
            "prim": "nat",
            "type": "nat",
            "name": "target_price",
            "value": "36000000000"
        },
        {
            "prim": "address",
            "type": "address",
            "name": "admin",
            "value": "tz1MZD3EecfFVHbteFYXZMpFnvFH1g6a2BA1"
        },
        {
            "prim": "bool",
            "type": "bool",
            "name": "initialized",
            "value": true
        },
        {
            "prim": "nat",
            "type": "nat",
            "name": "market_earnings",
            "value": "0"
        },
        {
            "prim": "nat",
            "type": "nat",
            "name": "creator_earnings",
            "value": "0"
        },
        {
            "prim": "nat",
            "type": "nat",
            "name": "cancel_fee_multiplier",
            "value": "6000000000000000"
        },
        {
            "prim": "nat",
            "type": "nat",
            "name": "exercise_fee_multiplier",
            "value": "3000000000000000"
        },
        {
            "prim": "nat",
            "type": "nat",
            "name": "min_capital",
            "value": "10000000000000000000"
        },
        {
            "prim": "nat",
            "type": "nat",
            "name": "skew_limit",
            "value": "80000000000000"
        }
    ]
}