[
    {
        "data": {
            "key": {
                "prim": "address",
                "type": "address",
                "value": "tz1ip7xzYsn6vFJg8SV6CLRfBPk2hrYG9FPb"
            },
            "value": {
                "prim": "pair",
                "type": "namedtuple",
                "children": [
                    {
                        "prim": "map",
                        "type": "map",
                        "name": "approvals"
                    },
                    {
                        "prim": "nat",
                        "type": "nat",
                        "name": "balance",
                        "value": "9167494400000000000000"
                    }
                ]
            },
            "key_hash": "expruSDxFrHr2Ys35FDeVpfD3Pju8Dpq2MdtGHmnLb7y16WHjitZu8",
            "key_string": "tz1ip7xzYsn6vFJg8SV6CLRfBPk2hrYG9FPb",
            "level": 411868,
            "timestamp": "2021-02-01T16:50:03Z"
        },
        "count": 1
    },
    {
        "data": {
            "key": {
                "prim": "address",
                "type": "address",
                "value": "tz1UmZCtZCgS4fNp6YsFMNKhpZkKnxhU4C1c"
            },
            "value": {
                "prim": "pair",
                "type": "namedtuple",
                "children": [
                    {
                        "prim": "map",
                        "type": "map",
                        "name": "approvals"
                    },
                    {
                        "prim": "nat",
                        "type": "nat",
                        "name": "balance",
                        "value": "40000000000000000000"
                    }
                ]
            },
            "key_hash": "exprtpkSdz8WjqrCErvfMa6vqR4ZaZkY53mFNb93NXJgFB7wVCamko",
            "key_string": "tz1UmZCtZCgS4fNp6YsFMNKhpZkKnxhU4C1c",
            "level": 411592,
            "timestamp": "2021-02-01T14:28:01Z"
        },
        "count": 3
    },
    {
        "data": {
            "key": {
                "prim": "address",
                "type": "address",
                "value": "tz1LxUqjWTM8WqRh9sGNFjk1sU5jrmemcVkU"
            },
            "value": {
                "prim": "pair",
                "type": "namedtuple",
                "children": [
                    {
                        "prim": "map",
                        "type": "map",
                        "name": "approvals",
                        "children": [
                            {
                                "prim": "nat",
                                "type": "nat",
                                "name": "KT1XTUGj7Rkgh6vLVDu91h81Xu2WGfyTxpqi",
                                "value": "470853672911"
                            }
                        ]
                    },
                    {
                        "prim": "nat",
                        "type": "nat",
                        "name": "balance",
                        "value": "440000000470853672911"
                    }
                ]
            },
            "key_hash": "exprtsWzK7CQVgRC28gBPFshMGp7JuQcMBdA9KKr1GxJvgTbpztwQP",
            "key_string": "tz1LxUqjWTM8WqRh9sGNFjk1sU5jrmemcVkU",
            "level": 411592,
            "timestamp": "2021-02-01T14:28:01Z"
        },
        "count": 9
    },
    {
        "data": {
            "key": {
                "prim": "address",
                "type": "address",
                "value": "KT1XTUGj7Rkgh6vLVDu91h81Xu2WGfyTxpqi"
            },
            "value": {
                "prim": "pair",
                "type": "namedtuple",
                "children": [
                    {
                        "prim": "map",
                        "type": "map",
                        "name": "approvals"
                    },
                    {
                        "prim": "nat",
                        "type": "nat",
                        "name": "balance",
                        "value": "174554824334793359442303"
                    }
                ]
            },
            "key_hash": "expruKFET3nnq5pyCao6z2bR4jeZeHZUcUkvErdBxwWYzEkwjpTDWz",
            "key_string": "KT1XTUGj7Rkgh6vLVDu91h81Xu2WGfyTxpqi",
            "level": 410840,
            "timestamp": "2021-02-01T08:02:26Z"
        },
        "count": 176
    },
    {
        "data": {
            "key": {
                "prim": "address",
                "type": "address",
                "value": "tz1RhnGx9hCxbrN8zKEKLbwU1zKLYZTqRs63"
            },
            "value": {
                "prim": "pair",
                "type": "namedtuple",
                "children": [
                    {
                        "prim": "map",
                        "type": "map",
                        "name": "approvals"
                    },
                    {
                        "prim": "nat",
                        "type": "nat",
                        "name": "balance",
                        "value": "21570170178252554651"
                    }
                ]
            },
            "key_hash": "expruecC2B91fWrKg6xftS688Efoxtd1f7td3Qtv8asf8GcQ4aaS6b",
            "key_string": "tz1RhnGx9hCxbrN8zKEKLbwU1zKLYZTqRs63",
            "level": 410840,
            "timestamp": "2021-02-01T08:02:26Z"
        },
        "count": 6
    },
    {
        "data": {
            "key": {
                "prim": "address",
                "type": "address",
                "value": "tz1cgb5NhBsxGdxTPPHpzzeX3gZmnRGpgvJc"
            },
            "value": {
                "prim": "pair",
                "type": "namedtuple",
                "children": [
                    {
                        "prim": "map",
                        "type": "map",
                        "name": "approvals",
                        "children": [
                            {
                                "prim": "nat",
                                "type": "nat",
                                "name": "KT1XTUGj7Rkgh6vLVDu91h81Xu2WGfyTxpqi",
                                "value": "0"
                            }
                        ]
                    },
                    {
                        "prim": "nat",
                        "type": "nat",
                        "name": "balance",
                        "value": "0"
                    }
                ]
            },
            "key_hash": "expruTAGyohp5QSztuppw9QRt9pRDp5fC6FZvBu8Eo7QZmiqZuRnjH",
            "key_string": "tz1cgb5NhBsxGdxTPPHpzzeX3gZmnRGpgvJc",
            "level": 410107,
            "timestamp": "2021-02-01T01:45:51Z"
        },
        "count": 13
    },
    {
        "data": {
            "key": {
                "prim": "address",
                "type": "address",
                "value": "KT1Gn1sEga3q9fmMH1XU3GWM4JFz1XyncoWM"
            },
            "value": {
                "prim": "pair",
                "type": "namedtuple",
                "children": [
                    {
                        "prim": "map",
                        "type": "map",
                        "name": "approvals"
                    },
                    {
                        "prim": "nat",
                        "type": "nat",
                        "name": "balance",
                        "value": "26800000000000000000"
                    }
                ]
            },
            "key_hash": "expruyxrxZ6u9YFtxy75LYp1XYWeb5DFM34K8jNNouNDUKK4F3durK",
            "key_string": "KT1Gn1sEga3q9fmMH1XU3GWM4JFz1XyncoWM",
            "level": 409971,
            "timestamp": "2021-02-01T00:32:49Z"
        },
        "count": 1
    },
    {
        "data": {
            "key": {
                "prim": "address",
                "type": "address",
                "value": "tz1MZD3EecfFVHbteFYXZMpFnvFH1g6a2BA1"
            },
            "value": {
                "prim": "pair",
                "type": "namedtuple",
                "children": [
                    {
                        "prim": "map",
                        "type": "map",
                        "name": "approvals",
                        "children": [
                            {
                                "prim": "nat",
                                "type": "nat",
                                "name": "KT19mWUu6jaVgX3kY4r6Rw8GgYB7BH4BsfrC",
                                "value": "50000000000000000000"
                            },
                            {
                                "prim": "nat",
                                "type": "nat",
                                "name": "KT1Ey5yQpkP6AxggymCthKEPDbuGbWoKzTr5",
                                "value": "5220000000000000000"
                            },
                            {
                                "prim": "nat",
                                "type": "nat",
                                "name": "KT1Gn1sEga3q9fmMH1XU3GWM4JFz1XyncoWM",
                                "value": "23200000000000000000"
                            },
                            {
                                "prim": "nat",
                                "type": "nat",
                                "name": "KT1JSuyGi8CTZNWYgMFfybbysy1ur6rJfx9N",
                                "value": "40000000000000000000"
                            },
                            {
                                "prim": "nat",
                                "type": "nat",
                                "name": "KT1Q14x1evBgEjiZiJuZJ39Bcp9WaAEd1xAa",
                                "value": "18000000000000000000"
                            },
                            {
                                "prim": "nat",
                                "type": "nat",
                                "name": "KT1QsdRzQtgmDr9cLZviGPPSezFXKWPFh3x7",
                                "value": "18000000000000000000"
                            },
                            {
                                "prim": "nat",
                                "type": "nat",
                                "name": "KT1U7cMDT39CCu7XKyK7DNyptxaf8moYvXUo",
                                "value": "50000000000000000000"
                            }
                        ]
                    },
                    {
                        "prim": "nat",
                        "type": "nat",
                        "name": "balance",
                        "value": "1529798551301591432326"
                    }
                ]
            },
            "key_hash": "exprvJjS3U82iRbCaBdX6rK3Q8HH34KtHrWrjdWs5qqcFUGrGCH5dP",
            "key_string": "tz1MZD3EecfFVHbteFYXZMpFnvFH1g6a2BA1",
            "level": 409971,
            "timestamp": "2021-02-01T00:32:49Z"
        },
        "count": 20
    },
    {
        "data": {
            "key": {
                "prim": "address",
                "type": "address",
                "value": "tz1aCHp8d7ttR84SJWBusSALVy339hM9tKdE"
            },
            "value": {
                "prim": "pair",
                "type": "namedtuple",
                "children": [
                    {
                        "prim": "map",
                        "type": "map",
                        "name": "approvals",
                        "children": [
                            {
                                "prim": "nat",
                                "type": "nat",
                                "name": "KT1XTUGj7Rkgh6vLVDu91h81Xu2WGfyTxpqi",
                                "value": "0"
                            }
                        ]
                    },
                    {
                        "prim": "nat",
                        "type": "nat",
                        "name": "balance",
                        "value": "3933506714009237351060"
                    }
                ]
            },
            "key_hash": "expruFaQKAFxdMU8HUVAebS7PA5cRc1KwALJaYGb5YDkmzEyAf6aNK",
            "key_string": "tz1aCHp8d7ttR84SJWBusSALVy339hM9tKdE",
            "level": 409632,
            "timestamp": "2021-01-31T21:38:31Z"
        },
        "count": 110
    },
    {
        "data": {
            "key": {
                "prim": "address",
                "type": "address",
                "value": "KT1QWy7BNWLyb1rcPpkMV7RYbDbADGpdYUQk"
            },
            "value": {
                "prim": "pair",
                "type": "namedtuple",
                "children": [
                    {
                        "prim": "map",
                        "type": "map",
                        "name": "approvals"
                    },
                    {
                        "prim": "nat",
                        "type": "nat",
                        "name": "balance",
                        "value": "2222977057174213595975"
                    }
                ]
            },
            "key_hash": "expruBKmPRXhsuqEwAGZXBVC8qsng7Qxkd8vtzMNuL92y3hcxpKd8X",
            "key_string": "KT1QWy7BNWLyb1rcPpkMV7RYbDbADGpdYUQk",
            "level": 409632,
            "timestamp": "2021-01-31T21:38:31Z"
        },
        "count": 139
    }
]